{
  "service": {
    "service": "cf-dv3-opsdb-permissions",
    "serviceObject": {
      "name": "cf-dv3-opsdb-permissions"
    },
    "provider": {
      "name": "aws",
      "region": "us-west-2",
      "stage": "prod",
      "default-tags": [
        {
          "Key": "environment",
          "Value": "prod"
        },
        {
          "Key": "project",
          "Value": "dv3"
        }
      ],
      "deploymentBucket": "prod-dv3-dv3-deployment-stacks",
      "versionFunctions": true,
      "deploymentBucketObject": {
        "name": "prod-dv3-dv3-deployment-stacks",
        "serverSideEncryption": "AES256"
      },
      "compiledCloudFormationTemplate": {
        "AWSTemplateFormatVersion": "2010-09-09",
        "Description": "Master permissions template: roles, users, policies, etc",
        "Resources": {
          "DeploymentDWUserGroup": {
            "Type": "AWS::IAM::Group",
            "Properties": {
              "GroupName": "proddv3DeploymentDWUserGroup"
            }
          },
          "DeploymentManagementUserGroup": {
            "Type": "AWS::IAM::Group",
            "Properties": {
              "GroupName": "proddv3DeploymentManagementUserGroup"
            }
          },
          "DeploymentUser": {
            "Type": "AWS::IAM::User",
            "Properties": {
              "UserName": "proddv3DeploymentUser",
              "Groups": [
                {
                  "Ref": "DeploymentDWUserGroup"
                },
                {
                  "Ref": "DeploymentManagementUserGroup"
                }
              ]
            }
          },
          "S3DeleteDeploymentUserPolicy": {
            "Type": "AWS::IAM::Policy",
            "Properties": {
              "PolicyName": "proddv3S3DeleteDeploymentUserPolicy",
              "Groups": [
                {
                  "Ref": "DeploymentDWUserGroup"
                }
              ],
              "PolicyDocument": {
                "Version": "2012-10-17",
                "Statement": [
                  {
                    "Effect": "Allow",
                    "Action": [
                      "s3:Delete*",
                      "s3:List*",
                      "s3:Get*",
                      "s3:Put*"
                    ],
                    "Resource": [
                      {
                        "Fn::Sub": "arn:aws:iam::${AWS::AccountId}:user/proddv3DeploymentUser"
                      }
                    ]
                  }
                ]
              }
            }
          },
          "S3CreateDeploymentUserPolicy": {
            "Type": "AWS::IAM::Policy",
            "Properties": {
              "PolicyName": "proddv3S3CreateDeploymentUserPolicy",
              "Groups": [
                {
                  "Ref": "DeploymentDWUserGroup"
                }
              ],
              "PolicyDocument": {
                "Version": "2012-10-17",
                "Statement": [
                  {
                    "Effect": "Allow",
                    "Action": [
                      "s3:GetBucket",
                      "s3:GetObject",
                      "s3:Create*",
                      "s3:List*",
                      "s3:Delete*",
                      "s3:Put*",
                      "s3:GetBucketLocation",
                      "s3:GetObjectVersion"
                    ],
                    "Resource": "*"
                  }
                ]
              }
            }
          },
          "SnsCreateDeploymentUserPolicy": {
            "Type": "AWS::IAM::Policy",
            "Properties": {
              "PolicyName": "proddv3SnsCreateDeploymentUserPolicy",
              "Groups": [
                {
                  "Ref": "DeploymentDWUserGroup"
                }
              ],
              "PolicyDocument": {
                "Version": "2012-10-17",
                "Statement": [
                  {
                    "Effect": "Allow",
                    "Action": [
                      "sns:CreateTopic",
                      "sns:ListTopics",
                      "sns:SetTopicAttributes",
                      "sns:DeleteTopic",
                      "SNS:GetTopicAttributes",
                      "SNS:Subscribe",
                      "SNS:Unsubscribe",
                      "SNS:ListSubscriptionsByTopic"
                    ],
                    "Resource": "*"
                  }
                ]
              }
            }
          },
          "CFDeploymentUserPolicy": {
            "Type": "AWS::IAM::Policy",
            "Properties": {
              "Groups": [
                {
                  "Ref": "DeploymentManagementUserGroup"
                }
              ],
              "PolicyName": "proddv3CFDeploymentUserPolicy",
              "PolicyDocument": {
                "Version": "2012-10-17",
                "Statement": [
                  {
                    "Effect": "Allow",
                    "Action": [
                      "cloudformation:Describe*",
                      "cloudformation:List*",
                      "cloudformation:Get*",
                      "cloudformation:Create*",
                      "cloudformation:Execute*",
                      "cloudformation:Validate*",
                      "cloudformation:Update*",
                      "cloudformation:DeleteStack",
                      "cloudformation:DeleteChangeSet"
                    ],
                    "Resource": "*"
                  }
                ]
              }
            }
          },
          "AthenaDeploymentUserPolicy": {
            "Type": "AWS::IAM::Policy",
            "Properties": {
              "Groups": [
                {
                  "Ref": "DeploymentDWUserGroup"
                }
              ],
              "PolicyName": "proddv3AthenaDeploymentUserPolicy",
              "PolicyDocument": {
                "Version": "2012-10-17",
                "Statement": [
                  {
                    "Effect": "Allow",
                    "Action": [
                      "athena:DeleteWorkGroup",
                      "athena:GetWorkGroup",
                      "athena:ListWorkGroups",
                      "athena:UpdateWorkGroup",
                      "athena:CreateWorkGroup"
                    ],
                    "Resource": "*"
                  }
                ]
              }
            }
          },
          "GlueDeleteDeploymentUserPolicy": {
            "Type": "AWS::IAM::Policy",
            "Properties": {
              "Groups": [
                {
                  "Ref": "DeploymentDWUserGroup"
                }
              ],
              "PolicyName": "proddv3GlueDeleteDeploymentUserPolicy",
              "PolicyDocument": {
                "Version": "2012-10-17",
                "Statement": [
                  {
                    "Effect": "Allow",
                    "Action": [
                      "glue:DeleteConnection",
                      "glue:DeleteCrawler",
                      "glue:DeleteDatabase",
                      "glue:DeleteJob",
                      "glue:DeleteTable",
                      "glue:DeleteTrigger",
                      "glue:DeleteWorkflow",
                      "glue:CreateMLTransform",
                      "glue:DeleteMLTransform",
                      "glue:UpdateMLTransform",
                      "glue:GetTable"
                    ],
                    "Resource": [
                      {
                        "Fn::Sub": "arn:aws:glue:us-west-2:${AWS::AccountId}:database/dv3"
                      },
                      {
                        "Fn::Sub": "arn:aws:glue:us-west-2:${AWS::AccountId}:table/dv3/*"
                      },
                      {
                        "Fn::Sub": "arn:aws:glue:us-west-2:${AWS::AccountId}:crawler/dv3-*"
                      },
                      {
                        "Fn::Sub": "arn:aws:glue:us-west-2:${AWS::AccountId}:job/dv3-*"
                      },
                      {
                        "Fn::Sub": "arn:aws:glue:us-west-2:${AWS::AccountId}:workflow/dv3-*"
                      },
                      {
                        "Fn::Sub": "arn:aws:glue:us-west-2:${AWS::AccountId}:trigger/*"
                      },
                      {
                        "Fn::Sub": "arn:aws:glue:us-west-2:${AWS::AccountId}:classifier/dv3-*"
                      },
                      {
                        "Fn::Sub": "arn:aws:glue:us-west-2:${AWS::AccountId}:connection/*"
                      },
                      {
                        "Fn::Sub": "arn:aws:glue:us-west-2:${AWS::AccountId}:catalog"
                      }
                    ]
                  }
                ]
              }
            }
          },
          "GlueCreateDeploymentUserPolicy": {
            "Type": "AWS::IAM::Policy",
            "Properties": {
              "Groups": [
                {
                  "Ref": "DeploymentDWUserGroup"
                }
              ],
              "PolicyName": "proddv3GlueCreateDeploymentUserPolicy",
              "PolicyDocument": {
                "Version": "2012-10-17",
                "Statement": [
                  {
                    "Effect": "Allow",
                    "Action": [
                      "glue:CreateClassifier",
                      "glue:CreateConnection",
                      "glue:CreateCrawler",
                      "glue:CreateDatabase",
                      "glue:CreateJob",
                      "glue:DeleteClassifier",
                      "glue:CreateTrigger",
                      "glue:GetClassifier",
                      "glue:GetConnection",
                      "glue:GetCrawler",
                      "glue:GetDatabase",
                      "glue:GetTrigger",
                      "glue:UpdateClassifier",
                      "glue:UpdateConnection",
                      "glue:UpdateCrawler",
                      "glue:UpdateDatabase",
                      "glue:UpdateJob",
                      "glue:UpdateTrigger",
                      "glue:CreateWorkflow",
                      "glue:StopCrawler",
                      "glue:GetWorkflow"
                    ],
                    "Resource": "*"
                  }
                ]
              }
            }
          },
          "RdsDeploymentUserPolicy": {
            "Type": "AWS::IAM::Policy",
            "Properties": {
              "Groups": [
                {
                  "Ref": "DeploymentDWUserGroup"
                }
              ],
              "PolicyName": "proddv3RdsDeploymentUserPolicy",
              "PolicyDocument": {
                "Version": "2012-10-17",
                "Statement": [
                  {
                    "Effect": "Allow",
                    "Action": [
                      "rds:Create*",
                      "rds:Delete*",
                      "rds:Modify*",
                      "rds:Reboot*",
                      "rds:Describe*",
                      "rds:AddTagsToResource"
                    ],
                    "Resource": "*"
                  }
                ]
              }
            }
          },
          "SecretManagerDeploymentUserPolicy": {
            "Type": "AWS::IAM::Policy",
            "Properties": {
              "Groups": [
                {
                  "Ref": "DeploymentManagementUserGroup"
                }
              ],
              "PolicyName": "proddv3SecretManagerDeploymentUserPolicy",
              "PolicyDocument": {
                "Version": "2012-10-17",
                "Statement": [
                  {
                    "Effect": "Allow",
                    "Action": [
                      "secretsmanager:CreateSecret",
                      "secretsmanager:UpdateSecret",
                      "secretsmanager:GetSecretValue",
                      "secretsmanager:TagResource",
                      "secretsmanager:GetRandomPassword",
                      "secretsmanager:DeleteSecret"
                    ],
                    "Resource": "*"
                  }
                ]
              }
            }
          },
          "LambdaDeploymentUserPolicy": {
            "Type": "AWS::IAM::Policy",
            "Properties": {
              "Groups": [
                {
                  "Ref": "DeploymentDWUserGroup"
                }
              ],
              "PolicyName": "proddv3LambdaDeploymentUserPolicy",
              "PolicyDocument": {
                "Version": "2012-10-17",
                "Statement": [
                  {
                    "Effect": "Allow",
                    "Action": [
                      "lambda:DeleteEventSourceMapping",
                      "lambda:UpdateEventSourceMapping",
                      "lambda:CreateEventSourceMapping",
                      "lambda:InvokeFunction",
                      "lambda:CreateFunction",
                      "lambda:UpdateFunctionCode",
                      "lambda:DeleteFunction",
                      "lambda:ListFunctions",
                      "lambda:GetFunction",
                      "lambda:PublishLayerVersion",
                      "lambda:CreateLayer",
                      "lambda:DeleteLayerVersion",
                      "lambda:GetLayerVersion",
                      "lambda:ListVersionsByFunction",
                      "lambda:PublishVersion",
                      "lambda:ListLayerVersions",
                      "lambda:ListLayers",
                      "lambda:UpdateFunctionConfiguration",
                      "events:DescribeRule",
                      "events:PutRule",
                      "events:PutTargets",
                      "events:RemoveTargets",
                      "lambda:AddPermission",
                      "lambda:RemovePermission",
                      "events:DeleteRule",
                      "lambda:PutFunctionConcurrency",
                      "lambda:GetFunctionConcurrency",
                      "lambda:DeleteFunctionConcurrency",
                      "lambda:CreateAlias",
                      "lambda:PutProvisionedConcurrencyConfig",
                      "lambda:DeleteAlias",
                      "lambda:DeleteProvisionedConcurrencyConfig",
                      "lambda:GetProvisionedConcurrencyConfig",
                      "cloudwatch:DescribeAlarms",
                      "cloudwatch:GetAlarms",
                      "cloudwatch:UpdateAlarms",
                      "cloudwatch:DeleteAlarms",
                      "cloudwatch:PutMetricAlarm",
                      "cloudwatch:GetMetricAlarm",
                      "cloudwatch:UpdateMetricAlarm",
                      "cloudwatch:DeleteMetricAlarm"
                    ],
                    "Resource": "*"
                  }
                ]
              }
            }
          },
          "SecurityGroupDeploymentUserPolicy": {
            "Type": "AWS::IAM::Policy",
            "Properties": {
              "Groups": [
                {
                  "Ref": "DeploymentManagementUserGroup"
                }
              ],
              "PolicyName": "proddv3SecurityGroupDeploymentUserPolicy",
              "PolicyDocument": {
                "Version": "2012-10-17",
                "Statement": [
                  {
                    "Effect": "Allow",
                    "Action": [
                      "ec2:AuthorizeSecurityGroupIngress",
                      "ec2:RevokeSecurityGroupIngress",
                      "ec2:AuthorizeSecurityGroupEgress",
                      "ec2:RevokeSecurityGroupEgress",
                      "ec2:ModifySecurityGroupRules",
                      "ec2:UpdateSecurityGroupRuleDescriptionsIngress",
                      "ec2:UpdateSecurityGroupRuleDescriptionsEgress",
                      "ec2:Describe*",
                      "ec2:CreateSecurityGroup",
                      "ec2:UpdateSecurityGroup",
                      "ec2:DeleteSecurityGroup",
                      "ec2:CreateTags",
                      "ec2:CreateVpc",
                      "ec2:CreateSubnet",
                      "ec2:DescribeAvailabilityZones",
                      "ec2:CreateRouteTable",
                      "ec2:CreateRoute",
                      "ec2:CreateInternetGateway",
                      "ec2:AttachInternetGateway",
                      "ec2:AssociateRouteTable",
                      "ec2:ModifyVpcAttribute",
                      "ec2:CreateDhcpOptions",
                      "ec2:DeleteVpc",
                      "ec2:DeleteInternetGateway",
                      "ec2:DeleteDhcpOptions",
                      "ec2:DeleteSubnet",
                      "ec2:DetachInternetGateway",
                      "ec2:AssociateDhcpOptions",
                      "ec2:DeleteRouteTable",
                      "ec2:CreateVpcEndpoint",
                      "ec2:ModifyVpcEndpoint",
                      "ec2:ReplaceRouteTableAssociation",
                      "ec2:DeleteRoute",
                      "ec2:DeleteVpcEndpoints",
                      "ec2:allocateAddress",
                      "ec2:deleteTags",
                      "ec2:CreateNatGateway",
                      "ec2:DeleteNatGateway",
                      "ec2:releaseAddress",
                      "ec2:CreateClientVpnEndpoint",
                      "ec2:DeleteClientVpnEndpoint",
                      "ec2:CreateClientVpnRoute",
                      "ec2:DeleteClientVpnRoute",
                      "ec2:ApplySecurityGroupsToClientVpnTargetNetwork",
                      "ec2:AssociateClientVpnTargetNetwork",
                      "ec2:AuthorizeClientVpnIngress",
                      "ec2:CreateVpnConnection",
                      "ec2:DeleteClientVpnEndpoint",
                      "ec2:DeleteClientVpnRoute",
                      "ec2:DescribeClientVpnConnections",
                      "ec2:DescribeClientVpnEndpoints",
                      "ec2:DescribeClientVpnRoutes",
                      "ec2:DescribeClientVpnRoutes",
                      "ec2:DisassociateClientVpnTargetNetwork",
                      "ec2:ExportClientVpnClientCertificateRevocationList",
                      "ec2:ExportClientVpnClientConfiguration",
                      "ec2:ImportClientVpnClientCertificateRevocationList",
                      "ec2:ModifyClientVpnEndpoint",
                      "ec2:TerminateClientVpnConnections",
                      "ec2:ModifySubnetAttribute",
                      "ec2:AssociateAddress",
                      "ec2:disassociateAddress"
                    ],
                    "Resource": "*"
                  }
                ]
              }
            }
          },
          "IamRoleDeploymentUserPolicy": {
            "Type": "AWS::IAM::Policy",
            "Properties": {
              "Groups": [
                {
                  "Ref": "DeploymentManagementUserGroup"
                }
              ],
              "PolicyName": "proddv3IamRoleDeploymentUserPolicy",
              "PolicyDocument": {
                "Version": "2012-10-17",
                "Statement": [
                  {
                    "Effect": "Allow",
                    "Action": [
                      "iam:CreateRole",
                      "iam:CreatePolicy",
                      "iam:ListPolicies",
                      "iam:ListRoles",
                      "iam:PutRolePolicy",
                      "iam:UpdateRole",
                      "iam:PassRole",
                      "iam:GetRole",
                      "iam:GetGroup",
                      "iam:DeleteRolePolicy",
                      "iam:DeleteRole",
                      "iam:DeletePolicy",
                      "iam:AttachRolePolicy",
                      "iam:GetRolePolicy",
                      "iam:DetachRolePolicy",
                      "iam:CreateServiceLinkedRole",
                      "iam:PutGroupPolicy"
                    ],
                    "Resource": [
                      {
                        "Fn::Sub": "arn:aws:iam::${AWS::AccountId}:role/*"
                      },
                      {
                        "Fn::Sub": "arn:aws:iam::${AWS::AccountId}:policy/*"
                      },
                      {
                        "Fn::Sub": "arn:aws:iam::${AWS::AccountId}:group/*"
                      },
                      {
                        "Fn::Sub": "arn:aws:iam::${AWS::AccountId}:user/proddv3DeploymentUser"
                      }
                    ]
                  }
                ]
              }
            }
          },
          "LogDeploymentUserPolicy": {
            "Type": "AWS::IAM::Policy",
            "Properties": {
              "Groups": [
                {
                  "Ref": "DeploymentManagementUserGroup"
                }
              ],
              "PolicyName": "proddv3LogDeploymentUserPolicy",
              "PolicyDocument": {
                "Version": "2012-10-17",
                "Statement": [
                  {
                    "Effect": "Allow",
                    "Action": [
                      "logs:CreateLogGroup",
                      "logs:DeleteLogGroup",
                      "log:UpdateLogGroup"
                    ],
                    "Resource": "*"
                  }
                ]
              }
            }
          },
          "ACMDeploymentUserPolicy": {
            "Type": "AWS::IAM::Policy",
            "Properties": {
              "Groups": [
                {
                  "Ref": "DeploymentManagementUserGroup"
                }
              ],
              "PolicyName": "proddv3ACMUserPolicy",
              "PolicyDocument": {
                "Version": "2012-10-17",
                "Statement": [
                  {
                    "Effect": "Allow",
                    "Action": [
                      "acm:ImportCertificate",
                      "acm-pca:CreateCertificateAuthority",
                      "acm-pca:DeleteCertificateAuthority",
                      "acm-pca:DescribeCertificateAuthority",
                      "acm-pca:GetCertificateAuthorityCsr",
                      "acm-pca:IssueCertificate",
                      "acm-pca:GetCertificate",
                      "acm-pca:ImportCertificateAuthorityCertificate",
                      "acm-pca:UpdateCertificateAuthority",
                      "acm:RequestCertificate",
                      "acm:CreateCertificate",
                      "acm:AddTagsToCertificate",
                      "acm:DeleteCertificate",
                      "acm:DescribeCertificate",
                      "acm-pca:CreatePermission",
                      "acm-pca:ListPermissions"
                    ],
                    "Resource": "*"
                  }
                ]
              }
            }
          },
          "SSMDeploymentUserPolicy": {
            "Type": "AWS::IAM::Policy",
            "Properties": {
              "Groups": [
                {
                  "Ref": "DeploymentManagementUserGroup"
                }
              ],
              "PolicyName": "proddv3SSMUserPolicy",
              "PolicyDocument": {
                "Version": "2012-10-17",
                "Statement": [
                  {
                    "Effect": "Allow",
                    "Action": [
                      "ssm:AddTagsToResource",
                      "ssm:PutParameter",
                      "ssm:GetParameters"
                    ],
                    "Resource": "*"
                  }
                ]
              }
            }
          },
          "AWSLambdaExecutionRole": {
            "Type": "AWS::IAM::Role",
            "Properties": {
              "AssumeRolePolicyDocument": {
                "Statement": [
                  {
                    "Action": [
                      "sts:AssumeRole"
                    ],
                    "Effect": "Allow",
                    "Principal": {
                      "Service": [
                        "lambda.amazonaws.com"
                      ]
                    }
                  }
                ],
                "Version": "2012-10-17"
              },
              "Path": "/",
              "Policies": [
                {
                  "PolicyDocument": {
                    "Statement": [
                      {
                        "Action": [
                          "logs:CreateLogGroup",
                          "logs:CreateLogStream",
                          "logs:PutLogEvents"
                        ],
                        "Effect": "Allow",
                        "Resource": "arn:aws:logs:*:*:*"
                      }
                    ],
                    "Version": "2012-10-17"
                  },
                  "PolicyName": "prod-dv3-Lambda-dv3-logs"
                },
                {
                  "PolicyDocument": {
                    "Statement": [
                      {
                        "Action": [
                          "s3:Put*",
                          "s3:Delete*",
                          "s3:List*",
                          "s3:Get*",
                          "s3:HeadObject",
                          "glue:GetCrawler",
                          "glue:StartCrawler",
                          "glue:StopCrawler",
                          "glue:StartWorkflowRun",
                          "glue:GetConnection",
                          "glue:GetWorkflowRun",
                          "glue:GetWorkflowRuns",
                          "glue:StopWorkflowRun",
                          "glue:StartJobRun",
                          "glue:StopJobRun",
                          "glue:GetJobRun"
                        ],
                        "Effect": "Allow",
                        "Resource": [
                          {
                            "Fn::Sub": "arn:aws:glue:us-west-2:${AWS::AccountId}:crawler/*"
                          },
                          {
                            "Fn::Sub": "arn:aws:glue:us-west-2:${AWS::AccountId}:job/*"
                          },
                          {
                            "Fn::Sub": "arn:aws:glue:us-west-2:${AWS::AccountId}:workflow/*"
                          },
                          {
                            "Fn::Sub": "arn:aws:glue:us-west-2:${AWS::AccountId}:catalog"
                          },
                          {
                            "Fn::Sub": "arn:aws:glue:us-west-2:${AWS::AccountId}:connection/dv3Rds"
                          }
                        ]
                      }
                    ],
                    "Version": "2012-10-17"
                  },
                  "PolicyName": {
                    "Fn::Sub": "prod-Lambda-dv3-S3"
                  }
                },
                {
                  "PolicyDocument": {
                    "Statement": [
                      {
                        "Action": [
                          "ec2:DescribeNetworkInterfaces",
                          "ec2:CreateNetworkInterface",
                          "ec2:DeleteNetworkInterface",
                          "ec2:DescribeInstances",
                          "ec2:AttachNetworkInterface"
                        ],
                        "Effect": "Allow",
                        "Resource": "*"
                      }
                    ],
                    "Version": "2012-10-17"
                  },
                  "PolicyName": "prod-ec2-lambda-vpc"
                },
                {
                  "PolicyDocument": {
                    "Statement": [
                      {
                        "Action": [
                          "SNS:ListTopics",
                          "SNS:GetTopics",
                          "SNS:DescribeTopics",
                          "SNS:CreateTopic",
                          "SNS:Publish"
                        ],
                        "Effect": "Allow",
                        "Resource": "*"
                      }
                    ],
                    "Version": "2012-10-17"
                  },
                  "PolicyName": "prod-sns-lambda"
                },
                {
                  "PolicyDocument": {
                    "Statement": [
                      {
                        "Action": [
                          "ses:SendRawEmail",
                          "ses:SendEmail",
                          "ses:VerifyEmailIdentity",
                          "ses:ListIdentities"
                        ],
                        "Effect": "Allow",
                        "Resource": "*"
                      }
                    ],
                    "Version": "2012-10-17"
                  },
                  "PolicyName": "prod-ses-lambda"
                },
                {
                  "PolicyDocument": {
                    "Statement": [
                      {
                        "Action": [
                          "secretsmanager:GetSecretValue",
                          "secretsmanager:GetRandomPassword"
                        ],
                        "Effect": "Allow",
                        "Resource": "*"
                      }
                    ],
                    "Version": "2012-10-17"
                  },
                  "PolicyName": "prod-secretmanager-lambda"
                },
                {
                  "PolicyDocument": {
                    "Statement": [
                      {
                        "Action": [
                          "ssm:DeleteParameter",
                          "ssm:DeleteParameters",
                          "ssm:DescribeParameters",
                          "ssm:GetParameter",
                          "ssm:GetParameters",
                          "ssm:GetParameterHistory",
                          "ssm:GetParametersByPath",
                          "ssm:PutParameter"
                        ],
                        "Effect": "Allow",
                        "Resource": "*"
                      }
                    ],
                    "Version": "2012-10-17"
                  },
                  "PolicyName": "prod-systemmanager-lambda"
                }
              ],
              "RoleName": "prod-dv3-S3-Lambda-Execution-Role"
            }
          },
          "GlueServiceRole": {
            "Type": "AWS::IAM::Role",
            "Properties": {
              "AssumeRolePolicyDocument": {
                "Version": "2012-10-17",
                "Statement": [
                  {
                    "Effect": "Allow",
                    "Principal": {
                      "Service": [
                        "glue.amazonaws.com",
                        "lakeformation.amazonaws.com"
                      ]
                    },
                    "Action": "sts:AssumeRole"
                  }
                ]
              },
              "ManagedPolicyArns": [
                "arn:aws:iam::aws:policy/service-role/AWSGlueServiceRole"
              ],
              "Policies": [
                {
                  "PolicyName": "glue-dv3-Storage-Policy",
                  "PolicyDocument": {
                    "Version": "2012-10-17",
                    "Statement": [
                      {
                        "Effect": "Allow",
                        "Action": [
                          "s3:Create*",
                          "s3:List*",
                          "s3:Delete*",
                          "s3:Put*",
                          "s3:Get*"
                        ],
                        "Resource": [
                          "arn:aws:s3:::prod-dv3-scripts/*",
                          "arn:aws:s3:::prod-dv3-scripts"
                        ]
                      }
                    ]
                  }
                },
                {
                  "PolicyName": "glue-Workflow-Policy",
                  "PolicyDocument": {
                    "Version": "2012-10-17",
                    "Statement": [
                      {
                        "Effect": "Allow",
                        "Action": [
                          "iam:PassRole",
                          "athena:StartQueryExecution",
                          "athena:GetQueryExecution",
                          "athena:GetQueryResults",
                          "secretsmanager:GetSecretValue"
                        ],
                        "Resource": [
                          {
                            "Fn::Sub": "arn:aws:iam::${AWS::AccountId}:role/*"
                          },
                          {
                            "Fn::Sub": "arn:aws:iam::${AWS::AccountId}:user/*"
                          },
                          {
                            "Fn::Sub": "arn:aws:athena:us-west-2:${AWS::AccountId}:workgroup/*"
                          },
                          "arn:aws:s3:::aws-athena-*"
                        ]
                      }
                    ]
                  }
                },
                {
                  "PolicyName": "prod-secretmanager-glue",
                  "PolicyDocument": {
                    "Version": "2012-10-17",
                    "Statement": [
                      {
                        "Effect": "Allow",
                        "Action": [
                          "secretsmanager:GetSecretValue",
                          "secretsmanager:GetRandomPassword"
                        ],
                        "Resource": "*"
                      }
                    ]
                  }
                }
              ],
              "RoleName": "prod-dv3-GlueServiceRole"
            }
          },
          "SagemakerNotebookRole": {
            "Type": "AWS::IAM::Role",
            "Properties": {
              "AssumeRolePolicyDocument": {
                "Version": "2012-10-17",
                "Statement": [
                  {
                    "Effect": "Allow",
                    "Principal": {
                      "Service": [
                        "sagemaker.amazonaws.com"
                      ]
                    },
                    "Action": "sts:AssumeRole"
                  }
                ]
              },
              "ManagedPolicyArns": [
                "arn:aws:iam::aws:policy/AmazonSageMakerFullAccess",
                "arn:aws:iam::aws:policy/AWSGlueConsoleFullAccess",
                "arn:aws:iam::aws:policy/AmazonS3FullAccess"
              ],
              "RoleName": "prod-dv3-sagemaker-role"
            }
          }
        },
        "Outputs": {
          "ServerlessDeploymentBucketName": {
            "Value": "prod-dv3-dv3-deployment-stacks",
            "Export": {
              "Name": "sls-cf-dv3-opsdb-permissions-prod-ServerlessDeploymentBucketName"
            }
          }
        }
      }
    },
    "custom": {
      "dv3-account-ids": {
        "prod": "108003724819"
      }
    },
    "plugins": [
      "serverless-deployment-bucket"
    ],
    "pluginsData": {},
    "functions": {},
    "resources": {
      "AWSTemplateFormatVersion": "2010-09-09",
      "Resources": {
        "DeploymentDWUserGroup": {
          "Type": "AWS::IAM::Group",
          "Properties": {
            "GroupName": "proddv3DeploymentDWUserGroup"
          }
        },
        "DeploymentManagementUserGroup": {
          "Type": "AWS::IAM::Group",
          "Properties": {
            "GroupName": "proddv3DeploymentManagementUserGroup"
          }
        },
        "DeploymentUser": {
          "Type": "AWS::IAM::User",
          "Properties": {
            "UserName": "proddv3DeploymentUser",
            "Groups": [
              {
                "Ref": "DeploymentDWUserGroup"
              },
              {
                "Ref": "DeploymentManagementUserGroup"
              }
            ]
          }
        },
        "S3DeleteDeploymentUserPolicy": {
          "Type": "AWS::IAM::Policy",
          "Properties": {
            "PolicyName": "proddv3S3DeleteDeploymentUserPolicy",
            "Groups": [
              {
                "Ref": "DeploymentDWUserGroup"
              }
            ],
            "PolicyDocument": {
              "Version": "2012-10-17",
              "Statement": [
                {
                  "Effect": "Allow",
                  "Action": [
                    "s3:Delete*",
                    "s3:List*",
                    "s3:Get*",
                    "s3:Put*"
                  ],
                  "Resource": [
                    {
                      "Fn::Sub": "arn:aws:iam::${AWS::AccountId}:user/proddv3DeploymentUser"
                    }
                  ]
                }
              ]
            }
          }
        },
        "S3CreateDeploymentUserPolicy": {
          "Type": "AWS::IAM::Policy",
          "Properties": {
            "PolicyName": "proddv3S3CreateDeploymentUserPolicy",
            "Groups": [
              {
                "Ref": "DeploymentDWUserGroup"
              }
            ],
            "PolicyDocument": {
              "Version": "2012-10-17",
              "Statement": [
                {
                  "Effect": "Allow",
                  "Action": [
                    "s3:GetBucket",
                    "s3:GetObject",
                    "s3:Create*",
                    "s3:List*",
                    "s3:Delete*",
                    "s3:Put*",
                    "s3:GetBucketLocation",
                    "s3:GetObjectVersion"
                  ],
                  "Resource": "*"
                }
              ]
            }
          }
        },
        "SnsCreateDeploymentUserPolicy": {
          "Type": "AWS::IAM::Policy",
          "Properties": {
            "PolicyName": "proddv3SnsCreateDeploymentUserPolicy",
            "Groups": [
              {
                "Ref": "DeploymentDWUserGroup"
              }
            ],
            "PolicyDocument": {
              "Version": "2012-10-17",
              "Statement": [
                {
                  "Effect": "Allow",
                  "Action": [
                    "sns:CreateTopic",
                    "sns:ListTopics",
                    "sns:SetTopicAttributes",
                    "sns:DeleteTopic",
                    "SNS:GetTopicAttributes",
                    "SNS:Subscribe",
                    "SNS:Unsubscribe",
                    "SNS:ListSubscriptionsByTopic"
                  ],
                  "Resource": "*"
                }
              ]
            }
          }
        },
        "CFDeploymentUserPolicy": {
          "Type": "AWS::IAM::Policy",
          "Properties": {
            "Groups": [
              {
                "Ref": "DeploymentManagementUserGroup"
              }
            ],
            "PolicyName": "proddv3CFDeploymentUserPolicy",
            "PolicyDocument": {
              "Version": "2012-10-17",
              "Statement": [
                {
                  "Effect": "Allow",
                  "Action": [
                    "cloudformation:Describe*",
                    "cloudformation:List*",
                    "cloudformation:Get*",
                    "cloudformation:Create*",
                    "cloudformation:Execute*",
                    "cloudformation:Validate*",
                    "cloudformation:Update*",
                    "cloudformation:DeleteStack",
                    "cloudformation:DeleteChangeSet"
                  ],
                  "Resource": "*"
                }
              ]
            }
          }
        },
        "AthenaDeploymentUserPolicy": {
          "Type": "AWS::IAM::Policy",
          "Properties": {
            "Groups": [
              {
                "Ref": "DeploymentDWUserGroup"
              }
            ],
            "PolicyName": "proddv3AthenaDeploymentUserPolicy",
            "PolicyDocument": {
              "Version": "2012-10-17",
              "Statement": [
                {
                  "Effect": "Allow",
                  "Action": [
                    "athena:DeleteWorkGroup",
                    "athena:GetWorkGroup",
                    "athena:ListWorkGroups",
                    "athena:UpdateWorkGroup",
                    "athena:CreateWorkGroup"
                  ],
                  "Resource": "*"
                }
              ]
            }
          }
        },
        "GlueDeleteDeploymentUserPolicy": {
          "Type": "AWS::IAM::Policy",
          "Properties": {
            "Groups": [
              {
                "Ref": "DeploymentDWUserGroup"
              }
            ],
            "PolicyName": "proddv3GlueDeleteDeploymentUserPolicy",
            "PolicyDocument": {
              "Version": "2012-10-17",
              "Statement": [
                {
                  "Effect": "Allow",
                  "Action": [
                    "glue:DeleteConnection",
                    "glue:DeleteCrawler",
                    "glue:DeleteDatabase",
                    "glue:DeleteJob",
                    "glue:DeleteTable",
                    "glue:DeleteTrigger",
                    "glue:DeleteWorkflow",
                    "glue:CreateMLTransform",
                    "glue:DeleteMLTransform",
                    "glue:UpdateMLTransform",
                    "glue:GetTable"
                  ],
                  "Resource": [
                    {
                      "Fn::Sub": "arn:aws:glue:us-west-2:${AWS::AccountId}:database/dv3"
                    },
                    {
                      "Fn::Sub": "arn:aws:glue:us-west-2:${AWS::AccountId}:table/dv3/*"
                    },
                    {
                      "Fn::Sub": "arn:aws:glue:us-west-2:${AWS::AccountId}:crawler/dv3-*"
                    },
                    {
                      "Fn::Sub": "arn:aws:glue:us-west-2:${AWS::AccountId}:job/dv3-*"
                    },
                    {
                      "Fn::Sub": "arn:aws:glue:us-west-2:${AWS::AccountId}:workflow/dv3-*"
                    },
                    {
                      "Fn::Sub": "arn:aws:glue:us-west-2:${AWS::AccountId}:trigger/*"
                    },
                    {
                      "Fn::Sub": "arn:aws:glue:us-west-2:${AWS::AccountId}:classifier/dv3-*"
                    },
                    {
                      "Fn::Sub": "arn:aws:glue:us-west-2:${AWS::AccountId}:connection/*"
                    },
                    {
                      "Fn::Sub": "arn:aws:glue:us-west-2:${AWS::AccountId}:catalog"
                    }
                  ]
                }
              ]
            }
          }
        },
        "GlueCreateDeploymentUserPolicy": {
          "Type": "AWS::IAM::Policy",
          "Properties": {
            "Groups": [
              {
                "Ref": "DeploymentDWUserGroup"
              }
            ],
            "PolicyName": "proddv3GlueCreateDeploymentUserPolicy",
            "PolicyDocument": {
              "Version": "2012-10-17",
              "Statement": [
                {
                  "Effect": "Allow",
                  "Action": [
                    "glue:CreateClassifier",
                    "glue:CreateConnection",
                    "glue:CreateCrawler",
                    "glue:CreateDatabase",
                    "glue:CreateJob",
                    "glue:DeleteClassifier",
                    "glue:CreateTrigger",
                    "glue:GetClassifier",
                    "glue:GetConnection",
                    "glue:GetCrawler",
                    "glue:GetDatabase",
                    "glue:GetTrigger",
                    "glue:UpdateClassifier",
                    "glue:UpdateConnection",
                    "glue:UpdateCrawler",
                    "glue:UpdateDatabase",
                    "glue:UpdateJob",
                    "glue:UpdateTrigger",
                    "glue:CreateWorkflow",
                    "glue:StopCrawler",
                    "glue:GetWorkflow"
                  ],
                  "Resource": "*"
                }
              ]
            }
          }
        },
        "RdsDeploymentUserPolicy": {
          "Type": "AWS::IAM::Policy",
          "Properties": {
            "Groups": [
              {
                "Ref": "DeploymentDWUserGroup"
              }
            ],
            "PolicyName": "proddv3RdsDeploymentUserPolicy",
            "PolicyDocument": {
              "Version": "2012-10-17",
              "Statement": [
                {
                  "Effect": "Allow",
                  "Action": [
                    "rds:Create*",
                    "rds:Delete*",
                    "rds:Modify*",
                    "rds:Reboot*",
                    "rds:Describe*",
                    "rds:AddTagsToResource"
                  ],
                  "Resource": "*"
                }
              ]
            }
          }
        },
        "SecretManagerDeploymentUserPolicy": {
          "Type": "AWS::IAM::Policy",
          "Properties": {
            "Groups": [
              {
                "Ref": "DeploymentManagementUserGroup"
              }
            ],
            "PolicyName": "proddv3SecretManagerDeploymentUserPolicy",
            "PolicyDocument": {
              "Version": "2012-10-17",
              "Statement": [
                {
                  "Effect": "Allow",
                  "Action": [
                    "secretsmanager:CreateSecret",
                    "secretsmanager:UpdateSecret",
                    "secretsmanager:GetSecretValue",
                    "secretsmanager:TagResource",
                    "secretsmanager:GetRandomPassword",
                    "secretsmanager:DeleteSecret"
                  ],
                  "Resource": "*"
                }
              ]
            }
          }
        },
        "LambdaDeploymentUserPolicy": {
          "Type": "AWS::IAM::Policy",
          "Properties": {
            "Groups": [
              {
                "Ref": "DeploymentDWUserGroup"
              }
            ],
            "PolicyName": "proddv3LambdaDeploymentUserPolicy",
            "PolicyDocument": {
              "Version": "2012-10-17",
              "Statement": [
                {
                  "Effect": "Allow",
                  "Action": [
                    "lambda:DeleteEventSourceMapping",
                    "lambda:UpdateEventSourceMapping",
                    "lambda:CreateEventSourceMapping",
                    "lambda:InvokeFunction",
                    "lambda:CreateFunction",
                    "lambda:UpdateFunctionCode",
                    "lambda:DeleteFunction",
                    "lambda:ListFunctions",
                    "lambda:GetFunction",
                    "lambda:PublishLayerVersion",
                    "lambda:CreateLayer",
                    "lambda:DeleteLayerVersion",
                    "lambda:GetLayerVersion",
                    "lambda:ListVersionsByFunction",
                    "lambda:PublishVersion",
                    "lambda:ListLayerVersions",
                    "lambda:ListLayers",
                    "lambda:UpdateFunctionConfiguration",
                    "events:DescribeRule",
                    "events:PutRule",
                    "events:PutTargets",
                    "events:RemoveTargets",
                    "lambda:AddPermission",
                    "lambda:RemovePermission",
                    "events:DeleteRule",
                    "lambda:PutFunctionConcurrency",
                    "lambda:GetFunctionConcurrency",
                    "lambda:DeleteFunctionConcurrency",
                    "lambda:CreateAlias",
                    "lambda:PutProvisionedConcurrencyConfig",
                    "lambda:DeleteAlias",
                    "lambda:DeleteProvisionedConcurrencyConfig",
                    "lambda:GetProvisionedConcurrencyConfig",
                    "cloudwatch:DescribeAlarms",
                    "cloudwatch:GetAlarms",
                    "cloudwatch:UpdateAlarms",
                    "cloudwatch:DeleteAlarms",
                    "cloudwatch:PutMetricAlarm",
                    "cloudwatch:GetMetricAlarm",
                    "cloudwatch:UpdateMetricAlarm",
                    "cloudwatch:DeleteMetricAlarm"
                  ],
                  "Resource": "*"
                }
              ]
            }
          }
        },
        "SecurityGroupDeploymentUserPolicy": {
          "Type": "AWS::IAM::Policy",
          "Properties": {
            "Groups": [
              {
                "Ref": "DeploymentManagementUserGroup"
              }
            ],
            "PolicyName": "proddv3SecurityGroupDeploymentUserPolicy",
            "PolicyDocument": {
              "Version": "2012-10-17",
              "Statement": [
                {
                  "Effect": "Allow",
                  "Action": [
                    "ec2:AuthorizeSecurityGroupIngress",
                    "ec2:RevokeSecurityGroupIngress",
                    "ec2:AuthorizeSecurityGroupEgress",
                    "ec2:RevokeSecurityGroupEgress",
                    "ec2:ModifySecurityGroupRules",
                    "ec2:UpdateSecurityGroupRuleDescriptionsIngress",
                    "ec2:UpdateSecurityGroupRuleDescriptionsEgress",
                    "ec2:Describe*",
                    "ec2:CreateSecurityGroup",
                    "ec2:UpdateSecurityGroup",
                    "ec2:DeleteSecurityGroup",
                    "ec2:CreateTags",
                    "ec2:CreateVpc",
                    "ec2:CreateSubnet",
                    "ec2:DescribeAvailabilityZones",
                    "ec2:CreateRouteTable",
                    "ec2:CreateRoute",
                    "ec2:CreateInternetGateway",
                    "ec2:AttachInternetGateway",
                    "ec2:AssociateRouteTable",
                    "ec2:ModifyVpcAttribute",
                    "ec2:CreateDhcpOptions",
                    "ec2:DeleteVpc",
                    "ec2:DeleteInternetGateway",
                    "ec2:DeleteDhcpOptions",
                    "ec2:DeleteSubnet",
                    "ec2:DetachInternetGateway",
                    "ec2:AssociateDhcpOptions",
                    "ec2:DeleteRouteTable",
                    "ec2:CreateVpcEndpoint",
                    "ec2:ModifyVpcEndpoint",
                    "ec2:ReplaceRouteTableAssociation",
                    "ec2:DeleteRoute",
                    "ec2:DeleteVpcEndpoints",
                    "ec2:allocateAddress",
                    "ec2:deleteTags",
                    "ec2:CreateNatGateway",
                    "ec2:DeleteNatGateway",
                    "ec2:releaseAddress",
                    "ec2:CreateClientVpnEndpoint",
                    "ec2:DeleteClientVpnEndpoint",
                    "ec2:CreateClientVpnRoute",
                    "ec2:DeleteClientVpnRoute",
                    "ec2:ApplySecurityGroupsToClientVpnTargetNetwork",
                    "ec2:AssociateClientVpnTargetNetwork",
                    "ec2:AuthorizeClientVpnIngress",
                    "ec2:CreateVpnConnection",
                    "ec2:DeleteClientVpnEndpoint",
                    "ec2:DeleteClientVpnRoute",
                    "ec2:DescribeClientVpnConnections",
                    "ec2:DescribeClientVpnEndpoints",
                    "ec2:DescribeClientVpnRoutes",
                    "ec2:DescribeClientVpnRoutes",
                    "ec2:DisassociateClientVpnTargetNetwork",
                    "ec2:ExportClientVpnClientCertificateRevocationList",
                    "ec2:ExportClientVpnClientConfiguration",
                    "ec2:ImportClientVpnClientCertificateRevocationList",
                    "ec2:ModifyClientVpnEndpoint",
                    "ec2:TerminateClientVpnConnections",
                    "ec2:ModifySubnetAttribute",
                    "ec2:AssociateAddress",
                    "ec2:disassociateAddress"
                  ],
                  "Resource": "*"
                }
              ]
            }
          }
        },
        "IamRoleDeploymentUserPolicy": {
          "Type": "AWS::IAM::Policy",
          "Properties": {
            "Groups": [
              {
                "Ref": "DeploymentManagementUserGroup"
              }
            ],
            "PolicyName": "proddv3IamRoleDeploymentUserPolicy",
            "PolicyDocument": {
              "Version": "2012-10-17",
              "Statement": [
                {
                  "Effect": "Allow",
                  "Action": [
                    "iam:CreateRole",
                    "iam:CreatePolicy",
                    "iam:ListPolicies",
                    "iam:ListRoles",
                    "iam:PutRolePolicy",
                    "iam:UpdateRole",
                    "iam:PassRole",
                    "iam:GetRole",
                    "iam:GetGroup",
                    "iam:DeleteRolePolicy",
                    "iam:DeleteRole",
                    "iam:DeletePolicy",
                    "iam:AttachRolePolicy",
                    "iam:GetRolePolicy",
                    "iam:DetachRolePolicy",
                    "iam:CreateServiceLinkedRole",
                    "iam:PutGroupPolicy"
                  ],
                  "Resource": [
                    {
                      "Fn::Sub": "arn:aws:iam::${AWS::AccountId}:role/*"
                    },
                    {
                      "Fn::Sub": "arn:aws:iam::${AWS::AccountId}:policy/*"
                    },
                    {
                      "Fn::Sub": "arn:aws:iam::${AWS::AccountId}:group/*"
                    },
                    {
                      "Fn::Sub": "arn:aws:iam::${AWS::AccountId}:user/proddv3DeploymentUser"
                    }
                  ]
                }
              ]
            }
          }
        },
        "LogDeploymentUserPolicy": {
          "Type": "AWS::IAM::Policy",
          "Properties": {
            "Groups": [
              {
                "Ref": "DeploymentManagementUserGroup"
              }
            ],
            "PolicyName": "proddv3LogDeploymentUserPolicy",
            "PolicyDocument": {
              "Version": "2012-10-17",
              "Statement": [
                {
                  "Effect": "Allow",
                  "Action": [
                    "logs:CreateLogGroup",
                    "logs:DeleteLogGroup",
                    "log:UpdateLogGroup"
                  ],
                  "Resource": "*"
                }
              ]
            }
          }
        },
        "ACMDeploymentUserPolicy": {
          "Type": "AWS::IAM::Policy",
          "Properties": {
            "Groups": [
              {
                "Ref": "DeploymentManagementUserGroup"
              }
            ],
            "PolicyName": "proddv3ACMUserPolicy",
            "PolicyDocument": {
              "Version": "2012-10-17",
              "Statement": [
                {
                  "Effect": "Allow",
                  "Action": [
                    "acm:ImportCertificate",
                    "acm-pca:CreateCertificateAuthority",
                    "acm-pca:DeleteCertificateAuthority",
                    "acm-pca:DescribeCertificateAuthority",
                    "acm-pca:GetCertificateAuthorityCsr",
                    "acm-pca:IssueCertificate",
                    "acm-pca:GetCertificate",
                    "acm-pca:ImportCertificateAuthorityCertificate",
                    "acm-pca:UpdateCertificateAuthority",
                    "acm:RequestCertificate",
                    "acm:CreateCertificate",
                    "acm:AddTagsToCertificate",
                    "acm:DeleteCertificate",
                    "acm:DescribeCertificate",
                    "acm-pca:CreatePermission",
                    "acm-pca:ListPermissions"
                  ],
                  "Resource": "*"
                }
              ]
            }
          }
        },
        "SSMDeploymentUserPolicy": {
          "Type": "AWS::IAM::Policy",
          "Properties": {
            "Groups": [
              {
                "Ref": "DeploymentManagementUserGroup"
              }
            ],
            "PolicyName": "proddv3SSMUserPolicy",
            "PolicyDocument": {
              "Version": "2012-10-17",
              "Statement": [
                {
                  "Effect": "Allow",
                  "Action": [
                    "ssm:AddTagsToResource",
                    "ssm:PutParameter",
                    "ssm:GetParameters"
                  ],
                  "Resource": "*"
                }
              ]
            }
          }
        },
        "AWSLambdaExecutionRole": {
          "Type": "AWS::IAM::Role",
          "Properties": {
            "AssumeRolePolicyDocument": {
              "Statement": [
                {
                  "Action": [
                    "sts:AssumeRole"
                  ],
                  "Effect": "Allow",
                  "Principal": {
                    "Service": [
                      "lambda.amazonaws.com"
                    ]
                  }
                }
              ],
              "Version": "2012-10-17"
            },
            "Path": "/",
            "Policies": [
              {
                "PolicyDocument": {
                  "Statement": [
                    {
                      "Action": [
                        "logs:CreateLogGroup",
                        "logs:CreateLogStream",
                        "logs:PutLogEvents"
                      ],
                      "Effect": "Allow",
                      "Resource": "arn:aws:logs:*:*:*"
                    }
                  ],
                  "Version": "2012-10-17"
                },
                "PolicyName": "prod-dv3-Lambda-dv3-logs"
              },
              {
                "PolicyDocument": {
                  "Statement": [
                    {
                      "Action": [
                        "s3:Put*",
                        "s3:Delete*",
                        "s3:List*",
                        "s3:Get*",
                        "s3:HeadObject",
                        "glue:GetCrawler",
                        "glue:StartCrawler",
                        "glue:StopCrawler",
                        "glue:StartWorkflowRun",
                        "glue:GetConnection",
                        "glue:GetWorkflowRun",
                        "glue:GetWorkflowRuns",
                        "glue:StopWorkflowRun",
                        "glue:StartJobRun",
                        "glue:StopJobRun",
                        "glue:GetJobRun"
                      ],
                      "Effect": "Allow",
                      "Resource": [
                        {
                          "Fn::Sub": "arn:aws:glue:us-west-2:${AWS::AccountId}:crawler/*"
                        },
                        {
                          "Fn::Sub": "arn:aws:glue:us-west-2:${AWS::AccountId}:job/*"
                        },
                        {
                          "Fn::Sub": "arn:aws:glue:us-west-2:${AWS::AccountId}:workflow/*"
                        },
                        {
                          "Fn::Sub": "arn:aws:glue:us-west-2:${AWS::AccountId}:catalog"
                        },
                        {
                          "Fn::Sub": "arn:aws:glue:us-west-2:${AWS::AccountId}:connection/dv3Rds"
                        }
                      ]
                    }
                  ],
                  "Version": "2012-10-17"
                },
                "PolicyName": {
                  "Fn::Sub": "prod-Lambda-dv3-S3"
                }
              },
              {
                "PolicyDocument": {
                  "Statement": [
                    {
                      "Action": [
                        "ec2:DescribeNetworkInterfaces",
                        "ec2:CreateNetworkInterface",
                        "ec2:DeleteNetworkInterface",
                        "ec2:DescribeInstances",
                        "ec2:AttachNetworkInterface"
                      ],
                      "Effect": "Allow",
                      "Resource": "*"
                    }
                  ],
                  "Version": "2012-10-17"
                },
                "PolicyName": "prod-ec2-lambda-vpc"
              },
              {
                "PolicyDocument": {
                  "Statement": [
                    {
                      "Action": [
                        "SNS:ListTopics",
                        "SNS:GetTopics",
                        "SNS:DescribeTopics",
                        "SNS:CreateTopic",
                        "SNS:Publish"
                      ],
                      "Effect": "Allow",
                      "Resource": "*"
                    }
                  ],
                  "Version": "2012-10-17"
                },
                "PolicyName": "prod-sns-lambda"
              },
              {
                "PolicyDocument": {
                  "Statement": [
                    {
                      "Action": [
                        "ses:SendRawEmail",
                        "ses:SendEmail",
                        "ses:VerifyEmailIdentity",
                        "ses:ListIdentities"
                      ],
                      "Effect": "Allow",
                      "Resource": "*"
                    }
                  ],
                  "Version": "2012-10-17"
                },
                "PolicyName": "prod-ses-lambda"
              },
              {
                "PolicyDocument": {
                  "Statement": [
                    {
                      "Action": [
                        "secretsmanager:GetSecretValue",
                        "secretsmanager:GetRandomPassword"
                      ],
                      "Effect": "Allow",
                      "Resource": "*"
                    }
                  ],
                  "Version": "2012-10-17"
                },
                "PolicyName": "prod-secretmanager-lambda"
              },
              {
                "PolicyDocument": {
                  "Statement": [
                    {
                      "Action": [
                        "ssm:DeleteParameter",
                        "ssm:DeleteParameters",
                        "ssm:DescribeParameters",
                        "ssm:GetParameter",
                        "ssm:GetParameters",
                        "ssm:GetParameterHistory",
                        "ssm:GetParametersByPath",
                        "ssm:PutParameter"
                      ],
                      "Effect": "Allow",
                      "Resource": "*"
                    }
                  ],
                  "Version": "2012-10-17"
                },
                "PolicyName": "prod-systemmanager-lambda"
              }
            ],
            "RoleName": "prod-dv3-S3-Lambda-Execution-Role"
          }
        },
        "GlueServiceRole": {
          "Type": "AWS::IAM::Role",
          "Properties": {
            "AssumeRolePolicyDocument": {
              "Version": "2012-10-17",
              "Statement": [
                {
                  "Effect": "Allow",
                  "Principal": {
                    "Service": [
                      "glue.amazonaws.com",
                      "lakeformation.amazonaws.com"
                    ]
                  },
                  "Action": "sts:AssumeRole"
                }
              ]
            },
            "ManagedPolicyArns": [
              "arn:aws:iam::aws:policy/service-role/AWSGlueServiceRole"
            ],
            "Policies": [
              {
                "PolicyName": "glue-dv3-Storage-Policy",
                "PolicyDocument": {
                  "Version": "2012-10-17",
                  "Statement": [
                    {
                      "Effect": "Allow",
                      "Action": [
                        "s3:Create*",
                        "s3:List*",
                        "s3:Delete*",
                        "s3:Put*",
                        "s3:Get*"
                      ],
                      "Resource": [
                        "arn:aws:s3:::prod-dv3-scripts/*",
                        "arn:aws:s3:::prod-dv3-scripts"
                      ]
                    }
                  ]
                }
              },
              {
                "PolicyName": "glue-Workflow-Policy",
                "PolicyDocument": {
                  "Version": "2012-10-17",
                  "Statement": [
                    {
                      "Effect": "Allow",
                      "Action": [
                        "iam:PassRole",
                        "athena:StartQueryExecution",
                        "athena:GetQueryExecution",
                        "athena:GetQueryResults",
                        "secretsmanager:GetSecretValue"
                      ],
                      "Resource": [
                        {
                          "Fn::Sub": "arn:aws:iam::${AWS::AccountId}:role/*"
                        },
                        {
                          "Fn::Sub": "arn:aws:iam::${AWS::AccountId}:user/*"
                        },
                        {
                          "Fn::Sub": "arn:aws:athena:us-west-2:${AWS::AccountId}:workgroup/*"
                        },
                        "arn:aws:s3:::aws-athena-*"
                      ]
                    }
                  ]
                }
              },
              {
                "PolicyName": "prod-secretmanager-glue",
                "PolicyDocument": {
                  "Version": "2012-10-17",
                  "Statement": [
                    {
                      "Effect": "Allow",
                      "Action": [
                        "secretsmanager:GetSecretValue",
                        "secretsmanager:GetRandomPassword"
                      ],
                      "Resource": "*"
                    }
                  ]
                }
              }
            ],
            "RoleName": "prod-dv3-GlueServiceRole"
          }
        },
        "SagemakerNotebookRole": {
          "Type": "AWS::IAM::Role",
          "Properties": {
            "AssumeRolePolicyDocument": {
              "Version": "2012-10-17",
              "Statement": [
                {
                  "Effect": "Allow",
                  "Principal": {
                    "Service": [
                      "sagemaker.amazonaws.com"
                    ]
                  },
                  "Action": "sts:AssumeRole"
                }
              ]
            },
            "ManagedPolicyArns": [
              "arn:aws:iam::aws:policy/AmazonSageMakerFullAccess",
              "arn:aws:iam::aws:policy/AWSGlueConsoleFullAccess",
              "arn:aws:iam::aws:policy/AmazonS3FullAccess"
            ],
            "RoleName": "prod-dv3-sagemaker-role"
          }
        }
      },
      "Description": "Master permissions template: roles, users, policies, etc",
      "Outputs": {}
    },
    "configValidationMode": "warn",
    "serviceFilename": "serverless.yml",
    "initialServerlessConfig": {
      "service": "cf-dv3-opsdb-permissions",
      "Description": "Master permissions template: roles, users, policies, etc",
      "custom": {
        "$ref": "$[\"service\"][\"custom\"]"
      },
      "provider": {
        "$ref": "$[\"service\"][\"provider\"]"
      },
      "plugins": {
        "$ref": "$[\"service\"][\"plugins\"]"
      },
      "resources": {
        "$ref": "$[\"service\"][\"resources\"]"
      }
    },
    "layers": {},
    "isDashboardMonitoringPreconfigured": false
  },
  "package": {
    "artifactDirectoryName": "serverless/cf-dv3-opsdb-permissions/prod/1645729570455-2022-02-24T19:06:10.455Z",
    "artifact": ""
  }
}